…
``` r
joint_df4 <- left_join(met, stations, by = join_by(USAFID == USAF))
joint_df4 <- joint_df4 %>% mutate(elev_cat = case_when(
  elev < 93 ~ "low",
  elev >= 93 & elev < 401 ~ "mid",
  elev >= 401 ~ "high")
)

joint_df4 %>% 
  group_by(STATE, elev_cat) %>% 
  summarise(temp_mean = mean(temp, na.rm = TRUE), .groups = "drop")
```

    ## # A tibble: 101 × 3
    ##    STATE elev_cat temp_mean
    ##    <chr> <chr>        <dbl>
    ##  1 AL    low           25.1
    ##  2 AL    mid           23.8
    ##  3 AR    high          23.7
    ##  4 AR    low           25.6
    ##  5 AR    mid           24.4
    ##  6 AZ    high          23.9
    ##  7 AZ    low           29.3
    ##  8 AZ    mid           30.4
    ##  9 CA    high          18.1
    ## 10 CA    low           18.3
    ## # ℹ 91 more rows
…
